…
### Exercise 6

``` r
outsiders <- nobel_living %>%
  filter(born_country != "USA"
  )
count(outsiders, born_country, wt = NULL, sort = TRUE)
```

    ## # A tibble: 33 × 2
    ##    born_country       n
    ##    <chr>          <int>
    ##  1 Germany           20
    ##  2 Japan             17
    ##  3 United Kingdom    16
    ##  4 France             8
    ##  5 Canada             6
    ##  6 China              6
    ##  7 Switzerland        6
    ##  8 Israel             5
    ##  9 Norway             4
    ## 10 Australia          3
    ## # ℹ 23 more rows
…
